{% import "benchmark.helpers" as benchmark with context %}
{
  "version": 2,
  "description": "Tracker-generated track for struct",
  "indices": [
    {
      "name": "vector-str",
      "body": "vector-str.json"
    }
  ],
  "corpora": [
    {
      "name": "vector-str",
      "base-url": "https://storage.yandexcloud.net/devops-garage",
      "documents": [
        {
          "target-index": "vector-str",
          "source-file": "vector-str-documents.json.bz2",
          "document-count": 10000435,
          "compressed-bytes": 184043354,
          "uncompressed-bytes": 3194714425
        }
      ]
    }
  ],
  "schedule": [
    {
      "operation": "delete-index"
    },
    {
      "operation": {
        "operation-type": "create-index",
        "settings": {{index_settings | default({}) | tojson}}
      }
    },
    {
      "operation": {
        "operation-type": "cluster-health",
        "index": "vector-str",
        "request-params": {
          "wait_for_status": "{{cluster_health | default('green')}}",
          "wait_for_no_relocating_shards": "true"
        },
        "retry-until-success": true
      }
    },
    {
      "operation": {
        "operation-type": "bulk",
        "bulk-size": {{bulk_size | default(5000)}},
        "ingest-percentage": {{ingest_percentage | default(100)}}
      },
      "clients": {{bulk_indexing_clients | default(8)}}
    }
  ]
}